<svg version="1.1" xmlns="http://www.w3.org/2000/svg" viewBox="71.8 155.4 808.5 822.2">
<rect x="71.8" y="155.4" width="808.5" height="822.2" fill="#202124" />
<polyline points="145.0 502.0,149.0 502.0,153.0 503.0,156.0 503.0,160.0 502.0,165.0 502.0,174.0 501.0,178.0 501.0,187.0 500.0,191.0 499.0,194.0 499.0,198.0 498.0,206.0 497.0,210.0 497.0,218.0 496.0,222.0 496.0,239.0 495.0,243.0 495.0,255.0 494.0,260.0 494.0,264.0 493.0,268.0 493.0,373.0 492.0,404.0 491.0,407.0 491.0,447.0 490.0,451.0 490.0,554.0 489.0,576.0 490.0,579.0 490.0,594.0 489.0,598.0 489.0,621.0 488.0,625.0 488.0,644.0 489.0,648.0 489.0,663.0 490.0,666.0 490.0,699.0 491.0,703.0 491.0" style="fill:none;stroke:#ffffff;stroke-width:2"/>
<polyline points="171.0 498.0,170.0 500.0,168.0 502.0,164.0 507.0,162.0 509.0,156.0 514.0,154.0 516.0,147.0 524.0,145.0 525.0,143.0 527.0,141.0 529.0" style="fill:none;stroke:#ffffff;stroke-width:2"/>
<polyline points="214.0 500.0,212.0 502.0,208.0 507.0,206.0 508.0,205.0 510.0,202.0 514.0,200.0 515.0,199.0 517.0,195.0 521.0,191.0 526.0" style="fill:none;stroke:#ffffff;stroke-width:2"/>
<polyline points="240.0 500.0,238.0 503.0,235.0 506.0,232.0 510.0,230.0 512.0,229.0 514.0,227.0 516.0,224.0 520.0,222.0 522.0,220.0 526.0,219.0 527.0" style="fill:none;stroke:#ffffff;stroke-width:2"/>
<polyline points="274.0 496.0,272.0 499.0,269.0 504.0,267.0 506.0,263.0 511.0,260.0 515.0,259.0 517.0,256.0 522.0,255.0 524.0" style="fill:none;stroke:#ffffff;stroke-width:2"/>
<polyline points="314.0 491.0,313.0 494.0,311.0 498.0,309.0 501.0,308.0 503.0,306.0 506.0,303.0 512.0,301.0 514.0,297.0 520.0,295.0 522.0,294.0 523.0" style="fill:none;stroke:#ffffff;stroke-width:2"/>
<polyline points="341.0 496.0,339.0 499.0,337.0 503.0,331.0 513.0,330.0 515.0,328.0 521.0,327.0 522.0" style="fill:none;stroke:#ffffff;stroke-width:2"/>
<polyline points="376.0 496.0,375.0 498.0,373.0 501.0,372.0 503.0,368.0 508.0,367.0 510.0,364.0 514.0,363.0 516.0,359.0 523.0" style="fill:none;stroke:#ffffff;stroke-width:2"/>
<polyline points="445.0 486.0,443.0 487.0,442.0 489.0,439.0 494.0,436.0 498.0,428.0 508.0,427.0 510.0,423.0 515.0,421.0 517.0,420.0 519.0" style="fill:none;stroke:#ffffff;stroke-width:2"/>
<polyline points="447.0 497.0,446.0 501.0,443.0 505.0,442.0 507.0,439.0 511.0,438.0 514.0,436.0 516.0,434.0 520.0,432.0 523.0" style="fill:none;stroke:#ffffff;stroke-width:2"/>
<polyline points="482.0 495.0,481.0 497.0,477.0 502.0,476.0 505.0,474.0 507.0,470.0 512.0,468.0 514.0,467.0 517.0,465.0 520.0,464.0 522.0,463.0 523.0" style="fill:none;stroke:#ffffff;stroke-width:2"/>
<polyline points="520.0 493.0,518.0 496.0,517.0 498.0,513.0 502.0,505.0 511.0,503.0 513.0,502.0 515.0,501.0 517.0" style="fill:none;stroke:#ffffff;stroke-width:2"/>
<polyline points="567.0 493.0,566.0 495.0,564.0 498.0,560.0 503.0,559.0 505.0,557.0 507.0,551.0 514.0,549.0 516.0,545.0 521.0" style="fill:none;stroke:#ffffff;stroke-width:2"/>
<polyline points="607.0 492.0,605.0 495.0,602.0 499.0,600.0 501.0,591.0 511.0,589.0 513.0,587.0 517.0,585.0 520.0" style="fill:none;stroke:#ffffff;stroke-width:2"/>
<polyline points="641.0 491.0,640.0 494.0,638.0 497.0,635.0 501.0,633.0 503.0,624.0 513.0,622.0 515.0,620.0 518.0,618.0 521.0" style="fill:none;stroke:#ffffff;stroke-width:2"/>
<polyline points="685.0 489.0,684.0 491.0,682.0 493.0,681.0 495.0,677.0 500.0,675.0 502.0,674.0 504.0,671.0 509.0,670.0 511.0,668.0 514.0,667.0 516.0,666.0 517.0" style="fill:none;stroke:#ffffff;stroke-width:2"/>
<polyline points="403.0 494.0,402.0 497.0,400.0 500.0,398.0 504.0,396.0 506.0,393.0 511.0,391.0 514.0,389.0 516.0,388.0 518.0,385.0 521.0,384.0 523.0,382.0 526.0" style="fill:none;stroke:#ffffff;stroke-width:2"/>
<polyline points="147.0 451.0,150.0 450.0,155.0 450.0,160.0 450.0" style="fill:none;stroke:#ffffff;stroke-width:2"/>
<polyline points="186.0 449.0,192.0 449.0,194.0 449.0" style="fill:none;stroke:#ffffff;stroke-width:2"/>
<polyline points="236.0 448.0,238.0 447.0,241.0 447.0,245.0 446.0" style="fill:none;stroke:#ffffff;stroke-width:2"/>
<polyline points="268.0 446.0,271.0 446.0,275.0 446.0" style="fill:none;stroke:#ffffff;stroke-width:2"/>
<polyline points="310.0 445.0,314.0 445.0,415.0 445.0,452.0 444.0,457.0 444.0,475.0 443.0,479.0 443.0,504.0 442.0,508.0 442.0,650.0 442.0,689.0 442.0" style="fill:none;stroke:#ffffff;stroke-width:2"/>
<polyline points="146.0 449.0,150.0 449.0,153.0 450.0,158.0 451.0,161.0 451.0,171.0 450.0,176.0 450.0,182.0 449.0,185.0 449.0,219.0 448.0,222.0 448.0,240.0 447.0,244.0 447.0,264.0 446.0,268.0 446.0,272.0 447.0,276.0 447.0,301.0 446.0,305.0 446.0,311.0 446.0" style="fill:none;stroke:#ffffff;stroke-width:2"/>
<polyline points="709.0 457.0,706.0 458.0,704.0 459.0,701.0 461.0,699.0 462.0,698.0 465.0,700.0 467.0,702.0 468.0,704.0 469.0" style="fill:none;stroke:#ffffff;stroke-width:2"/>
<polyline points="705.0 467.0,709.0 467.0,719.0 468.0,721.0 467.0" style="fill:none;stroke:#ffffff;stroke-width:2"/>
<polyline points="744.0 451.0,743.0 453.0,742.0 456.0,740.0 461.0,739.0 463.0,736.0 471.0,735.0 474.0,734.0 476.0,734.0 479.0,737.0 480.0,741.0 480.0" style="fill:none;stroke:#ffffff;stroke-width:2"/>
<polyline points="749.0 477.0,751.0 474.0,753.0 472.0,755.0 469.0,758.0 466.0,759.0 464.0,759.0 469.0,759.0 478.0" style="fill:none;stroke:#ffffff;stroke-width:2"/>
<polyline points="753.0 473.0,757.0 472.0" style="fill:none;stroke:#ffffff;stroke-width:2"/>
<polyline points="767.0 471.0,767.0 475.0,768.0 472.0,769.0 470.0,771.0 467.0,774.0 471.0,777.0 472.0,778.0 470.0,780.0 467.0,781.0 470.0,781.0 474.0,780.0 475.0" style="fill:none;stroke:#ffffff;stroke-width:2"/>
<polyline points="790.0 469.0,789.0 472.0,789.0 475.0,788.0 477.0" style="fill:none;stroke:#ffffff;stroke-width:2"/>
<polyline points="796.0 470.0,795.0 473.0,794.0 477.0,796.0 474.0,797.0 471.0,799.0 468.0,800.0 472.0,801.0 475.0,803.0 477.0,807.0 471.0,810.0 467.0" style="fill:none;stroke:#ffffff;stroke-width:2"/>
<polyline points="812.0 477.0,814.0 476.0,816.0 473.0,819.0 469.0,820.0 467.0,820.0 471.0,821.0 476.0" style="fill:none;stroke:#ffffff;stroke-width:2"/>
<polyline points="815.0 474.0,817.0 472.0,820.0 471.0" style="fill:none;stroke:#ffffff;stroke-width:2"/>
<polyline points="830.0 469.0,829.0 472.0,829.0 475.0,828.0 478.0,827.0 479.0" style="fill:none;stroke:#ffffff;stroke-width:2"/>
<polyline points="828.0 442.0,831.0 440.0,834.0 439.0,840.0 438.0,848.0 438.0,855.0 439.0,857.0 442.0,857.0 446.0,855.0 448.0,851.0 451.0,849.0 452.0,847.0 454.0,845.0 455.0,838.0 459.0,838.0 462.0,839.0 467.0,839.0 470.0,840.0 474.0,840.0 478.0,841.0 481.0,843.0 489.0,846.0 497.0,848.0 503.0,850.0 508.0,851.0 512.0,851.0 517.0,851.0 519.0" style="fill:none;stroke:#ffffff;stroke-width:2"/>
<polyline points="751.0 499.0,748.0 500.0,743.0 502.0,740.0 505.0,738.0 509.0,738.0 513.0,739.0 517.0,740.0 520.0,741.0 526.0,740.0 528.0,738.0 531.0,735.0 533.0,731.0 534.0,725.0 533.0" style="fill:none;stroke:#ffffff;stroke-width:2"/>
<polyline points="744.0 523.0,745.0 527.0,744.0 530.0,746.0 533.0,750.0 532.0,753.0 530.0,755.0 528.0,756.0 526.0" style="fill:none;stroke:#ffffff;stroke-width:2"/>
<polyline points="765.0 521.0,764.0 523.0,763.0 526.0,762.0 530.0,761.0 531.0" style="fill:none;stroke:#ffffff;stroke-width:2"/>
<polyline points="758.0 519.0,760.0 518.0,764.0 518.0,766.0 517.0,769.0 519.0,768.0 521.0,766.0 524.0,767.0 528.0,769.0 530.0,770.0 533.0,768.0 534.0,767.0 535.0" style="fill:none;stroke:#ffffff;stroke-width:2"/>
<polyline points="781.0 521.0,780.0 523.0,779.0 527.0,778.0 530.0,779.0 533.0,784.0 533.0" style="fill:none;stroke:#ffffff;stroke-width:2"/>
<polyline points="788.0 534.0,789.0 531.0,791.0 528.0,792.0 526.0,793.0 523.0,795.0 519.0,796.0 523.0,796.0 526.0,797.0 530.0,797.0 532.0" style="fill:none;stroke:#ffffff;stroke-width:2"/>
<polyline points="793.0 527.0,796.0 526.0,798.0 526.0" style="fill:none;stroke:#ffffff;stroke-width:2"/>
<polyline points="806.0 520.0,805.0 523.0,806.0 527.0,810.0 527.0,812.0 525.0,811.0 527.0,810.0 531.0,809.0 533.0,807.0 538.0,805.0 542.0,804.0 545.0,802.0 549.0,801.0 552.0,800.0 557.0,799.0 560.0,799.0 562.0" style="fill:none;stroke:#ffffff;stroke-width:2"/>
<polyline points="819.0 533.0,817.0 535.0,817.0 538.0,818.0 542.0,822.0 541.0,823.0 540.0" style="fill:none;stroke:#ffffff;stroke-width:2"/>
<polyline points="814.0 530.0,818.0 529.0,821.0 528.0,824.0 528.0" style="fill:none;stroke:#ffffff;stroke-width:2"/>
<polyline points="816.0 537.0,819.0 536.0,823.0 534.0" style="fill:none;stroke:#ffffff;stroke-width:2"/>
<polyline points="836.0 526.0,835.0 531.0,834.0 534.0,832.0 538.0,831.0 540.0" style="fill:none;stroke:#ffffff;stroke-width:2"/>
<polyline points="833.0 513.0,837.0 512.0,842.0 511.0,847.0 511.0,849.0 512.0,852.0 513.0,854.0 515.0,853.0 518.0,852.0 520.0,850.0 521.0,841.0 526.0,838.0 528.0,835.0 529.0,837.0 531.0,838.0 533.0,839.0 536.0,839.0 542.0,838.0 549.0,838.0 558.0,839.0 566.0,841.0 569.0,842.0 571.0,846.0 575.0,848.0 576.0,853.0 579.0,857.0 580.0,859.0 581.0,861.0 581.0" style="fill:none;stroke:#ffffff;stroke-width:2"/>
<polyline points="620.0 450.0,622.0 447.0,624.0 445.0,628.0 444.0,629.0 446.0,630.0 448.0" style="fill:none;stroke:#ffffff;stroke-width:2"/>
<polyline points="625.0 449.0,626.0 451.0,626.0 455.0,626.0 480.0" style="fill:none;stroke:#ffffff;stroke-width:2"/>
<polyline points="623.0 478.0,624.0 481.0,627.0 480.0,628.0 477.0,630.0 474.0" style="fill:none;stroke:#ffffff;stroke-width:2"/>
<polyline points="647.0 468.0,645.0 465.0,643.0 466.0,641.0 468.0,642.0 471.0,644.0 473.0,648.0 475.0,647.0 474.0" style="fill:none;stroke:#ffffff;stroke-width:2"/>
<polyline points="644.0 466.0,642.0 468.0,641.0 471.0,643.0 473.0,647.0 474.0,650.0 474.0,653.0 473.0,652.0 470.0,651.0 468.0,650.0 463.0,649.0 461.0,648.0 455.0,647.0 453.0,646.0 449.0,645.0 446.0,647.0 444.0,652.0 444.0,654.0 445.0,658.0 446.0,660.0 446.0" style="fill:none;stroke:#ffffff;stroke-width:2"/>
<polyline points="659.0 471.0,663.0 471.0,664.0 468.0,663.0 464.0,662.0 461.0,661.0 466.0,660.0 470.0,660.0 474.0,661.0 477.0,663.0 478.0,665.0 480.0" style="fill:none;stroke:#ffffff;stroke-width:2"/>
<polyline points="669.0 469.0,671.0 472.0,672.0 476.0,670.0 476.0" style="fill:none;stroke:#ffffff;stroke-width:2"/>
<polyline points="674.0 465.0,673.0 462.0,671.0 464.0,669.0 468.0,669.0 470.0" style="fill:none;stroke:#ffffff;stroke-width:2"/>
<polyline points="143.0 275.0,147.0 275.0,163.0 274.0,166.0 274.0,180.0 273.0,188.0 273.0,290.0 273.0,311.0 272.0,315.0 272.0,418.0 272.0,471.0 271.0,476.0 271.0,497.0 272.0,500.0 272.0,594.0 274.0,598.0 274.0,608.0 275.0,613.0 275.0,620.0 276.0,623.0 276.0,631.0 277.0,634.0 276.0,638.0 276.0,656.0 277.0,660.0 277.0,663.0 276.0,668.0 277.0,670.0 277.0" style="fill:none;stroke:#ffffff;stroke-width:2"/>
<polyline points="667.0 277.0,670.0 278.0,674.0 278.0,696.0 277.0" style="fill:none;stroke:#ffffff;stroke-width:2"/>
<polyline points="280.0 292.0,271.0 293.0,269.0 294.0,261.0 297.0,257.0 299.0,252.0 300.0,245.0 304.0,242.0 305.0,239.0 307.0,236.0 308.0,229.0 312.0,226.0 314.0,224.0 316.0,220.0 319.0,218.0 320.0,217.0 322.0,214.0 324.0,210.0 329.0,207.0 332.0,203.0 339.0,201.0 342.0,200.0 345.0,199.0 347.0,198.0 352.0,197.0 354.0,197.0 357.0,198.0 362.0,198.0 365.0,199.0 367.0,202.0 374.0,203.0 376.0,205.0 377.0,208.0 380.0,210.0 381.0,217.0 383.0,220.0 384.0,225.0 384.0,229.0 383.0,238.0 382.0,242.0 381.0,252.0 379.0,257.0 377.0,262.0 376.0,268.0 374.0,273.0 372.0,285.0 368.0,290.0 366.0,316.0 354.0,325.0 349.0,329.0 345.0,333.0 342.0,339.0 334.0,341.0 329.0,346.0 314.0,347.0 310.0,347.0 305.0,345.0 298.0,343.0 296.0,340.0 294.0,328.0 290.0,320.0 289.0,313.0 289.0,292.0 290.0,285.0 291.0,272.0 294.0" style="fill:none;stroke:#ffffff;stroke-width:2"/>
<polyline points="465.0 295.0,460.0 296.0,457.0 297.0,453.0 299.0,448.0 300.0,446.0 301.0,441.0 303.0,435.0 306.0,430.0 308.0,426.0 311.0,419.0 316.0,416.0 318.0,414.0 319.0,412.0 321.0,408.0 326.0,405.0 330.0,402.0 335.0,397.0 344.0,396.0 348.0,394.0 360.0,394.0 363.0,395.0 370.0,397.0 374.0,400.0 379.0,402.0 380.0,408.0 382.0,419.0 382.0,425.0 381.0,431.0 379.0,444.0 375.0,450.0 372.0,457.0 370.0,464.0 367.0,478.0 359.0,485.0 356.0,492.0 351.0,504.0 342.0,509.0 337.0,513.0 331.0,519.0 321.0,520.0 315.0,521.0 310.0,520.0 306.0,516.0 298.0,512.0 296.0,498.0 293.0,491.0 293.0,477.0 294.0,462.0 298.0,433.0 307.0" style="fill:none;stroke:#ffffff;stroke-width:2"/>
<polyline points="627.0 301.0,620.0 302.0,617.0 304.0,612.0 308.0,609.0 312.0,600.0 326.0,597.0 331.0,595.0 335.0,590.0 344.0,589.0 349.0,587.0 353.0,586.0 357.0,586.0 364.0,587.0 369.0,589.0 371.0,592.0 373.0,595.0 374.0,600.0 374.0,611.0 373.0,616.0 372.0,627.0 369.0,632.0 367.0,653.0 358.0,659.0 354.0,664.0 351.0,673.0 343.0,676.0 339.0,678.0 335.0,680.0 327.0,679.0 323.0,678.0 320.0,675.0 317.0,668.0 312.0,663.0 311.0,645.0 309.0,638.0 309.0,631.0 310.0,623.0 311.0" style="fill:none;stroke:#ffffff;stroke-width:2"/>
<polyline points="251.0 408.0,249.0 405.0,247.0 406.0,243.0 409.0,240.0 411.0,238.0 413.0,236.0 417.0,238.0 420.0,242.0 420.0,246.0 418.0,249.0 417.0,251.0 416.0,254.0 414.0,256.0 413.0,258.0 410.0,257.0 408.0,254.0 407.0,253.0 406.0" style="fill:none;stroke:#ffffff;stroke-width:2"/>
<polyline points="304.0 411.0,297.0 413.0,295.0 415.0,294.0 419.0,294.0 423.0,295.0 426.0,297.0 428.0,303.0 427.0,306.0 426.0,309.0 423.0,310.0 421.0,310.0 418.0" style="fill:none;stroke:#ffffff;stroke-width:2"/>
<polyline points="207.0 395.0,200.0 396.0,198.0 398.0,196.0 399.0,193.0 402.0,192.0 404.0,190.0 407.0,190.0 411.0,192.0 416.0,196.0 417.0,198.0 416.0,207.0 410.0,209.0 408.0,211.0 405.0,211.0 398.0" style="fill:none;stroke:#ffffff;stroke-width:2"/>
<polyline points="203.0 428.0,201.0 430.0,199.0 433.0,201.0 436.0,204.0 436.0,207.0 434.0,209.0 432.0" style="fill:none;stroke:#ffffff;stroke-width:2"/>
<polyline points="351.0 430.0,352.0 427.0,349.0 429.0,347.0 432.0,348.0 435.0,352.0 436.0,354.0 435.0,358.0 432.0,359.0 429.0,357.0 427.0" style="fill:none;stroke:#ffffff;stroke-width:2"/>
<polyline points="375.0 380.0,374.0 377.0,372.0 376.0,369.0 375.0,361.0 378.0,359.0 380.0,354.0 386.0,352.0 388.0,351.0 390.0,349.0 395.0,349.0 399.0,350.0 402.0,351.0 404.0,355.0 405.0,359.0 405.0,362.0 404.0,370.0 400.0,373.0 399.0,375.0 397.0,380.0 391.0,381.0 389.0,381.0 385.0,380.0 382.0,379.0 380.0,376.0 378.0,374.0 377.0,372.0 377.0" style="fill:none;stroke:#ffffff;stroke-width:2"/>
<polyline points="328.0 373.0,324.0 374.0,322.0 375.0,319.0 377.0,317.0 380.0,316.0 382.0,315.0 386.0,314.0 388.0,315.0 392.0,317.0 397.0,319.0 398.0,323.0 399.0,327.0 399.0,331.0 398.0,335.0 396.0,346.0 389.0,349.0 386.0,350.0 384.0,352.0 382.0,352.0 378.0,350.0 376.0" style="fill:none;stroke:#ffffff;stroke-width:2"/>
<polyline points="534.0 359.0,531.0 358.0,527.0 359.0,524.0 360.0,521.0 362.0,510.0 371.0,505.0 379.0,503.0 383.0,502.0 387.0,502.0 390.0,503.0 394.0,504.0 396.0,508.0 400.0,512.0 401.0,516.0 401.0,529.0 398.0,531.0 397.0,535.0 394.0,537.0 393.0,538.0 391.0,542.0 382.0,542.0 378.0,541.0 368.0" style="fill:none;stroke:#ffffff;stroke-width:2"/>
<polyline points="461.0 413.0,459.0 414.0,456.0 417.0,454.0 418.0,452.0 421.0,451.0 423.0,450.0 426.0,451.0 430.0,453.0 431.0,456.0 431.0,459.0 429.0,463.0 428.0,466.0 424.0,468.0 421.0" style="fill:none;stroke:#ffffff;stroke-width:2"/>
<polyline points="415.0 420.0,413.0 422.0,411.0 425.0,410.0 428.0,411.0 431.0,414.0 432.0,418.0 430.0,421.0 428.0,423.0 427.0,423.0 423.0,422.0 422.0" style="fill:none;stroke:#ffffff;stroke-width:2"/>
<polyline points="466.0 382.0,463.0 383.0,461.0 384.0,460.0 387.0,458.0 392.0,458.0 395.0,459.0 399.0,461.0 402.0,466.0 401.0,470.0 399.0,476.0 395.0,478.0 393.0,479.0 391.0" style="fill:none;stroke:#ffffff;stroke-width:2"/>
<polyline points="601.0 382.0,596.0 383.0,593.0 384.0,590.0 387.0,588.0 388.0,587.0 390.0,584.0 394.0,583.0 396.0,582.0 400.0,582.0 403.0,583.0 405.0,587.0 408.0,590.0 408.0,598.0 407.0,607.0 405.0,610.0 404.0,613.0 402.0,615.0 401.0,616.0 399.0,619.0 394.0,619.0 390.0,618.0 387.0" style="fill:none;stroke:#ffffff;stroke-width:2"/>
<polyline points="657.0 411.0,654.0 412.0,652.0 414.0,650.0 417.0,649.0 420.0,650.0 422.0,653.0 424.0,657.0 424.0,659.0 423.0,662.0 422.0,664.0 420.0,666.0 416.0" style="fill:none;stroke:#ffffff;stroke-width:2"/>
<polyline points="546.0 415.0,544.0 416.0,542.0 419.0,540.0 421.0,539.0 423.0,538.0 426.0,537.0 431.0,538.0 433.0,544.0 432.0,546.0 431.0,548.0 429.0,551.0 424.0" style="fill:none;stroke:#ffffff;stroke-width:2"/>
<polyline points="237.0 298.0,236.0 300.0,235.0 303.0,233.0 305.0,232.0 308.0,235.0 309.0,237.0 308.0,240.0 307.0" style="fill:none;stroke:#ffffff;stroke-width:2"/>
<polyline points="192.0 389.0,194.0 392.0,194.0 396.0,195.0 402.0,198.0 400.0" style="fill:none;stroke:#ffffff;stroke-width:2"/>
<polyline points="195.0 422.0,197.0 424.0,200.0 428.0,203.0 427.0,205.0 427.0" style="fill:none;stroke:#ffffff;stroke-width:2"/>
<polyline points="236.0 403.0,237.0 406.0,239.0 410.0,242.0 410.0,245.0 408.0,247.0 407.0,249.0 407.0" style="fill:none;stroke:#ffffff;stroke-width:2"/>
<polyline points="309.0 374.0,309.0 378.0,310.0 381.0,311.0 383.0,312.0 386.0,315.0 386.0,317.0 384.0,322.0 380.0" style="fill:none;stroke:#ffffff;stroke-width:2"/>
<polyline points="326.0 371.0,330.0 370.0,332.0 369.0,336.0 369.0,343.0 370.0,346.0 371.0,347.0 372.0" style="fill:none;stroke:#ffffff;stroke-width:2"/>
<polyline points="372.0 382.0,371.0 385.0,373.0 383.0,377.0 377.0,379.0 379.0,383.0 383.0" style="fill:none;stroke:#ffffff;stroke-width:2"/>
<polyline points="292.0 405.0,294.0 409.0,295.0 412.0,297.0 415.0,300.0 415.0,303.0 413.0,304.0 412.0" style="fill:none;stroke:#ffffff;stroke-width:2"/>
<polyline points="359.0 419.0,356.0 421.0,354.0 423.0,356.0 426.0,358.0 428.0" style="fill:none;stroke:#ffffff;stroke-width:2"/>
<polyline points="393.0 323.0,394.0 326.0,396.0 334.0,398.0 337.0,399.0 340.0,401.0 342.0,402.0 344.0,405.0 344.0,407.0 342.0,410.0 338.0,412.0 337.0,413.0 336.0" style="fill:none;stroke:#ffffff;stroke-width:2"/>
<polyline points="659.0 293.0,656.0 297.0,654.0 298.0,652.0 300.0,645.0 306.0,643.0 308.0,639.0 311.0,637.0 313.0,636.0 315.0,637.0 317.0,640.0 320.0,643.0 322.0,644.0 324.0,646.0 327.0" style="fill:none;stroke:#ffffff;stroke-width:2"/>
<polyline points="595.0 397.0,598.0 398.0,604.0 399.0,606.0 400.0,609.0 403.0,608.0 406.0,607.0 408.0,607.0 410.0" style="fill:none;stroke:#ffffff;stroke-width:2"/>
<polyline points="528.0 419.0,531.0 418.0,533.0 417.0,537.0 417.0,539.0 416.0,540.0 418.0,542.0 421.0" style="fill:none;stroke:#ffffff;stroke-width:2"/>
<polyline points="527.0 380.0,530.0 381.0,532.0 380.0,535.0 379.0,537.0 378.0,541.0 378.0,543.0 380.0,544.0 383.0,545.0 385.0,546.0 388.0,546.0 390.0" style="fill:none;stroke:#ffffff;stroke-width:2"/>
<polyline points="465.0 394.0,469.0 393.0,473.0 393.0,474.0 396.0,474.0 400.0" style="fill:none;stroke:#ffffff;stroke-width:2"/>
<polyline points="461.0 378.0,464.0 377.0,469.0 377.0,473.0 378.0,475.0 379.0,477.0 382.0,477.0 385.0,477.0 390.0" style="fill:none;stroke:#ffffff;stroke-width:2"/>
<polyline points="445.0 406.0,448.0 409.0,449.0 411.0,450.0 414.0,452.0 417.0,455.0 416.0,457.0 414.0,458.0 413.0" style="fill:none;stroke:#ffffff;stroke-width:2"/>
<polyline points="450.0 405.0,449.0 408.0,447.0 406.0,448.0 408.0,453.0 420.0,455.0 419.0,458.0 417.0,460.0 415.0,462.0 413.0" style="fill:none;stroke:#ffffff;stroke-width:2"/>
<polyline points="453.0 419.0,453.0 415.0,454.0 413.0,456.0 410.0,458.0 408.0,462.0 405.0,465.0 406.0,467.0 407.0,470.0 409.0,471.0 411.0,473.0 414.0,473.0 418.0,471.0 422.0,470.0 424.0" style="fill:none;stroke:#ffffff;stroke-width:2"/>
<polyline points="545.0 411.0,542.0 412.0,539.0 414.0,537.0 416.0,533.0 422.0,532.0 425.0,533.0 428.0,535.0 431.0,538.0 432.0,543.0 433.0,546.0 432.0,549.0 430.0,551.0 429.0,553.0 426.0,555.0 424.0,556.0 421.0,557.0 417.0,557.0 413.0,556.0 406.0,551.0 406.0,549.0 407.0" style="fill:none;stroke:#ffffff;stroke-width:2"/>
<polyline points="648.0 403.0,649.0 406.0,648.0 409.0,648.0 413.0,651.0 413.0,655.0 413.0" style="fill:none;stroke:#ffffff;stroke-width:2"/>
<polyline points="658.0 406.0,655.0 407.0,653.0 409.0,651.0 410.0,649.0 413.0,648.0 415.0,647.0 418.0,648.0 422.0,650.0 424.0,653.0 425.0,657.0 425.0,659.0 424.0,662.0 424.0,666.0 423.0,668.0 422.0,670.0 418.0,669.0 413.0,667.0 410.0,666.0 408.0,665.0 407.0" style="fill:none;stroke:#ffffff;stroke-width:2"/>
<polyline points="133.0 439.0,137.0 439.0,141.0 440.0,144.0 440.0,157.0 439.0,163.0 439.0,189.0 438.0,193.0 438.0,218.0 437.0,221.0 437.0,231.0 437.0" style="fill:none;stroke:#ffffff;stroke-width:2"/>
<polyline points="173.0 421.0,174.0 424.0,176.0 426.0,178.0 429.0,181.0 433.0,183.0 435.0,185.0 439.0,183.0 440.0,180.0 442.0,178.0 444.0,176.0 445.0,173.0 447.0" style="fill:none;stroke:#ffffff;stroke-width:2"/>
<polyline points="127.0 452.0,129.0 451.0,133.0 452.0,137.0 452.0,156.0 451.0,160.0 451.0,183.0 450.0,187.0 450.0,213.0 449.0" style="fill:none;stroke:#ffffff;stroke-width:2"/>
<polyline points="187.0 435.0,188.0 438.0,189.0 440.0,191.0 442.0,194.0 443.0,196.0 445.0,199.0 446.0,201.0 448.0,202.0 451.0,200.0 453.0,197.0 455.0,195.0 457.0,189.0 463.0" style="fill:none;stroke:#ffffff;stroke-width:2"/>
<polyline points="132.0 466.0,136.0 466.0,139.0 467.0,144.0 467.0,152.0 466.0,156.0 466.0,172.0 465.0,176.0 465.0,180.0 464.0,185.0 464.0,194.0 463.0,197.0 464.0,201.0 464.0" style="fill:none;stroke:#ffffff;stroke-width:2"/>
<polyline points="157.0 455.0,160.0 457.0,162.0 460.0,164.0 461.0,166.0 463.0,169.0 465.0,171.0 466.0,174.0 468.0,173.0 470.0,171.0 471.0,168.0 472.0,164.0 474.0" style="fill:none;stroke:#ffffff;stroke-width:2"/>
<polyline points="130.0 478.0,134.0 478.0,154.0 479.0,157.0 479.0,170.0 478.0,174.0 478.0,194.0 478.0" style="fill:none;stroke:#ffffff;stroke-width:2"/>
<polyline points="151.0 470.0,153.0 472.0,154.0 474.0,156.0 476.0,160.0 479.0,157.0 480.0,153.0 482.0,152.0 483.0" style="fill:none;stroke:#ffffff;stroke-width:2"/>
<polyline points="125.0 488.0,130.0 488.0,135.0 489.0,138.0 489.0,160.0 488.0,165.0 488.0,185.0 488.0" style="fill:none;stroke:#ffffff;stroke-width:2"/>
<polyline points="136.0 478.0,137.0 481.0,140.0 483.0,142.0 485.0,144.0 486.0,146.0 488.0,145.0 490.0,142.0 492.0,140.0 493.0,138.0 495.0,135.0 498.0" style="fill:none;stroke:#ffffff;stroke-width:2"/>
<polyline points="91.0 236.0,94.0 235.0,103.0 234.0,108.0 234.0,118.0 233.0,123.0 233.0,133.0 232.0,138.0 232.0,150.0 231.0,157.0 231.0,170.0 230.0,177.0 230.0,190.0 229.0,208.0 227.0,213.0 227.0,222.0 226.0,225.0 226.0,233.0 225.0,233.0 224.0" style="fill:none;stroke:#ffffff;stroke-width:2"/>
<polyline points="156.0 213.0,158.0 215.0,160.0 216.0,167.0 220.0,169.0 221.0,173.0 224.0,176.0 225.0,178.0 227.0,179.0 231.0,177.0 233.0,175.0 234.0,173.0 236.0,171.0 237.0,168.0 240.0,166.0 241.0,161.0 245.0,159.0 247.0,158.0 250.0" style="fill:none;stroke:#ffffff;stroke-width:2"/>
<polyline points="182.0 187.0,184.0 188.0,187.0 192.0,188.0 195.0,191.0 199.0,193.0 202.0,195.0 204.0,199.0 206.0,202.0 202.0,203.0 200.0,209.0 189.0,211.0 185.0,215.0 179.0,216.0 176.0,217.0 175.0" style="fill:none;stroke:#ffffff;stroke-width:2"/>
<polyline points="214.0 198.0,213.0 202.0,214.0 207.0,216.0 209.0,218.0 208.0,221.0 205.0,223.0 201.0,224.0 204.0,224.0 206.0" style="fill:none;stroke:#ffffff;stroke-width:2"/>
<polyline points="231.0 199.0,230.0 205.0,230.0 208.0,229.0 212.0,229.0 216.0,228.0 218.0,227.0 221.0" style="fill:none;stroke:#ffffff;stroke-width:2"/>
<polyline points="231.0 197.0,234.0 196.0,236.0 195.0,239.0 197.0,237.0 201.0,236.0 202.0" style="fill:none;stroke:#ffffff;stroke-width:2"/>
<polyline points="244.0 194.0,246.0 196.0,248.0 201.0,246.0 202.0,244.0 204.0" style="fill:none;stroke:#ffffff;stroke-width:2"/>
<polyline points="260.0 178.0,259.0 182.0,258.0 188.0,256.0 194.0,255.0 198.0,253.0 201.0,253.0 203.0" style="fill:none;stroke:#ffffff;stroke-width:2"/>
<polyline points="248.0 197.0,250.0 196.0,253.0 195.0,257.0 195.0" style="fill:none;stroke:#ffffff;stroke-width:2"/>
<polyline points="261.0 197.0,260.0 202.0,259.0 205.0" style="fill:none;stroke:#ffffff;stroke-width:2"/>
<polyline points="261.0 193.0,264.0 192.0,267.0 192.0,269.0 194.0,267.0 196.0,264.0 198.0,262.0 199.0,263.0 202.0,265.0 206.0,267.0 208.0,268.0 210.0,269.0 211.0" style="fill:none;stroke:#ffffff;stroke-width:2"/>
<polyline points="272.0 197.0,274.0 199.0,277.0 198.0,274.0 200.0,272.0 203.0,273.0 207.0,275.0 208.0,277.0 208.0" style="fill:none;stroke:#ffffff;stroke-width:2"/>
<polyline points="281.0 205.0,283.0 204.0,284.0 202.0,285.0 199.0,287.0 197.0,287.0 200.0,288.0 205.0" style="fill:none;stroke:#ffffff;stroke-width:2"/>
<polyline points="284.0 203.0,287.0 202.0,289.0 202.0" style="fill:none;stroke:#ffffff;stroke-width:2"/>
<polyline points="294.0 200.0,294.0 204.0,296.0 203.0,297.0 200.0,299.0 197.0,301.0 199.0,306.0 201.0,308.0 200.0,311.0 198.0,315.0 195.0,316.0 198.0,316.0 202.0,315.0 205.0,315.0 207.0" style="fill:none;stroke:#ffffff;stroke-width:2"/>
<polyline points="692.0 294.0,693.0 291.0,694.0 289.0,697.0 284.0,699.0 287.0,700.0 290.0,701.0 292.0,702.0 296.0" style="fill:none;stroke:#ffffff;stroke-width:2"/>
<polyline points="698.0 293.0,698.0 297.0,697.0 315.0,697.0 318.0,696.0 329.0,696.0 332.0,695.0 338.0,695.0 341.0,694.0 369.0,694.0 372.0,693.0 390.0,693.0 394.0,693.0 434.0" style="fill:none;stroke:#ffffff;stroke-width:2"/>
<polyline points="685.0 427.0,687.0 430.0,689.0 432.0,691.0 433.0,694.0 434.0,696.0 432.0,700.0 427.0,702.0 424.0,703.0 421.0" style="fill:none;stroke:#ffffff;stroke-width:2"/>
<polyline points="723.0 357.0,725.0 356.0,722.0 355.0,720.0 356.0,717.0 357.0,718.0 361.0,720.0 363.0,723.0 365.0,725.0 366.0,729.0 366.0,732.0 365.0,731.0 362.0,729.0 359.0,725.0 354.0,724.0 352.0,718.0 339.0,717.0 335.0,716.0 324.0,718.0 319.0,722.0 317.0,725.0 316.0,729.0 315.0,732.0 316.0,734.0 317.0,736.0 318.0" style="fill:none;stroke:#ffffff;stroke-width:2"/>
<polyline points="745.0 355.0,745.0 358.0,744.0 362.0,744.0 366.0,743.0 372.0,744.0 378.0,745.0 380.0,747.0 383.0,750.0 384.0,751.0 383.0" style="fill:none;stroke:#ffffff;stroke-width:2"/>
<polyline points="737.0 373.0,741.0 373.0,748.0 372.0,750.0 372.0" style="fill:none;stroke:#ffffff;stroke-width:2"/>
<polyline points="228.0 607.0,229.0 610.0,229.0 614.0,230.0 624.0,230.0 630.0,231.0 643.0,231.0 651.0,232.0 752.0,231.0 765.0,231.0 769.0,230.0 783.0,230.0 787.0,231.0 837.0,231.0 843.0,232.0 854.0,232.0 858.0,233.0 862.0,233.0 865.0,234.0 876.0,234.0 879.0,235.0 914.0,235.0 917.0,235.0 920.0" style="fill:none;stroke:#ffffff;stroke-width:2"/>
<polyline points="196.0 896.0,194.0 897.0,191.0 898.0,194.0 899.0,197.0 899.0,232.0 898.0,236.0 898.0,247.0 897.0,251.0 897.0,262.0 896.0,265.0 896.0,273.0 895.0,281.0 895.0,285.0 894.0,294.0 894.0,298.0 893.0,302.0 893.0,311.0 892.0,320.0 892.0,334.0 891.0,338.0 891.0,343.0 892.0,347.0 892.0,400.0 891.0,408.0 891.0,425.0 890.0,429.0 890.0,462.0 889.0,467.0 889.0,506.0 890.0,511.0 890.0,545.0 891.0,553.0 891.0,572.0 890.0,576.0 890.0,589.0 889.0,593.0 889.0,618.0 888.0" style="fill:none;stroke:#ffffff;stroke-width:2"/>
<polyline points="171.0 588.0,171.0 591.0,172.0 597.0,176.0 597.0,178.0 596.0,182.0 592.0,183.0 589.0,183.0 593.0,182.0 596.0,182.0 599.0,181.0 607.0,180.0 611.0,180.0 615.0,179.0 618.0,177.0 625.0,177.0 628.0,175.0 635.0,174.0 638.0,173.0 642.0,171.0 645.0,170.0 647.0,166.0 653.0,164.0 654.0,161.0 656.0" style="fill:none;stroke:#ffffff;stroke-width:2"/>
<polyline points="613.0 920.0,616.0 919.0,619.0 919.0,621.0 921.0,621.0 925.0,620.0 928.0,619.0 930.0,617.0 933.0,614.0 937.0,611.0 940.0,610.0 941.0" style="fill:none;stroke:#ffffff;stroke-width:2"/>
<polyline points="630.0 918.0,628.0 919.0,626.0 922.0,625.0 924.0,622.0 929.0,622.0 933.0,623.0 938.0,625.0 940.0,627.0 941.0,631.0 942.0" style="fill:none;stroke:#ffffff;stroke-width:2"/>
<polyline points="235.0 894.0,238.0 893.0,240.0 892.0,246.0 891.0,250.0 890.0,254.0 890.0,257.0 889.0,260.0 889.0,263.0 888.0,271.0 886.0,273.0 885.0,278.0 884.0,280.0 883.0,285.0 882.0,288.0 881.0,293.0 880.0,298.0 878.0,301.0 877.0,306.0 876.0,309.0 875.0,314.0 874.0,316.0 873.0,319.0 872.0,323.0 871.0,328.0 870.0,331.0 869.0,336.0 868.0,341.0 866.0,346.0 865.0,349.0 864.0,351.0 863.0,354.0 862.0,358.0 861.0,361.0 860.0,365.0 859.0,368.0 858.0,373.0 856.0,376.0 855.0,379.0 855.0,383.0 853.0,388.0 852.0,390.0 851.0,395.0 850.0,399.0 849.0,402.0 848.0,406.0 847.0,409.0 846.0,411.0 845.0,414.0 844.0,419.0 843.0,422.0 842.0,426.0 840.0,431.0 838.0,433.0 837.0,436.0 836.0,441.0 834.0,444.0 833.0,449.0 831.0,453.0 829.0,458.0 827.0,461.0 826.0,465.0 823.0,468.0 822.0,470.0 820.0,472.0 819.0,474.0 817.0,476.0 816.0,480.0 813.0,483.0 811.0,485.0 809.0,491.0 804.0,492.0 802.0,494.0 800.0,496.0 799.0,498.0 797.0,509.0 787.0,511.0 784.0,513.0 783.0,516.0 779.0,518.0 777.0,526.0 768.0,530.0 764.0,531.0 762.0,533.0 759.0,536.0 755.0,538.0 753.0,540.0 750.0,543.0 746.0,545.0 742.0,547.0 739.0,550.0 736.0,551.0 732.0,553.0 729.0,554.0 727.0,558.0 720.0,559.0 718.0,564.0 706.0,566.0 702.0,569.0 694.0,570.0 692.0,572.0 686.0,573.0 684.0,575.0 678.0,576.0 676.0,578.0 670.0,579.0 668.0,579.0 665.0,580.0 663.0,581.0 659.0,582.0 657.0,584.0 651.0,585.0 649.0,586.0 645.0,588.0 639.0,589.0 635.0,591.0 632.0,593.0 626.0,595.0 619.0,596.0 616.0,597.0 611.0,598.0 609.0,598.0 606.0,599.0 603.0,600.0 601.0,602.0 595.0" style="fill:none;stroke:#ffffff;stroke-width:2"/>
<polyline points="234.0 893.0,237.0 892.0,240.0 890.0" style="fill:none;stroke:#ffffff;stroke-width:2"/>
<polyline points="257.0 881.0,260.0 880.0,261.0 879.0" style="fill:none;stroke:#ffffff;stroke-width:2"/>
<polyline points="308.0 856.0,311.0 854.0,313.0 853.0,315.0 853.0" style="fill:none;stroke:#ffffff;stroke-width:2"/>
<polyline points="335.0 845.0,338.0 843.0" style="fill:none;stroke:#ffffff;stroke-width:2"/>
<polyline points="356.0 835.0,360.0 833.0,363.0 832.0,365.0 832.0" style="fill:none;stroke:#ffffff;stroke-width:2"/>
<polyline points="382.0 825.0,386.0 823.0,388.0 823.0" style="fill:none;stroke:#ffffff;stroke-width:2"/>
<polyline points="402.0 817.0,405.0 816.0,408.0 815.0" style="fill:none;stroke:#ffffff;stroke-width:2"/>
<polyline points="427.0 807.0,429.0 806.0,431.0 805.0" style="fill:none;stroke:#ffffff;stroke-width:2"/>
<polyline points="458.0 795.0,460.0 794.0" style="fill:none;stroke:#ffffff;stroke-width:2"/>
<polyline points="484.0 786.0,487.0 784.0" style="fill:none;stroke:#ffffff;stroke-width:2"/>
<polyline points="507.0 776.0,510.0 775.0,512.0 775.0" style="fill:none;stroke:#ffffff;stroke-width:2"/>
<polyline points="534.0 765.0,538.0 764.0,543.0 762.0,546.0 761.0,548.0 760.0" style="fill:none;stroke:#ffffff;stroke-width:2"/>
<polyline points="569.0 753.0,570.0 752.0" style="fill:none;stroke:#ffffff;stroke-width:2"/>
<polyline points="584.0 742.0,586.0 740.0" style="fill:none;stroke:#ffffff;stroke-width:2"/>
<polyline points="600.0 725.0,601.0 724.0" style="fill:none;stroke:#ffffff;stroke-width:2"/>
<polyline points="611.0 702.0,612.0 699.0" style="fill:none;stroke:#ffffff;stroke-width:2"/>
<polyline points="619.0 681.0,619.0 677.0,619.0 675.0" style="fill:none;stroke:#ffffff;stroke-width:2"/>
<polyline points="621.0 650.0,621.0 647.0,622.0 642.0" style="fill:none;stroke:#ffffff;stroke-width:2"/>
<polyline points="624.0 619.0,624.0 617.0" style="fill:none;stroke:#ffffff;stroke-width:2"/>
<polyline points="625.0 594.0,625.0 592.0" style="fill:none;stroke:#ffffff;stroke-width:2"/>
<polyline points="276.0 870.0,277.0 869.0" style="fill:none;stroke:#ffffff;stroke-width:2"/>
<polyline points="288.0 864.0,290.0 863.0" style="fill:none;stroke:#ffffff;stroke-width:2"/>
<polyline points="503.0 812.0,501.0 816.0,500.0 819.0,500.0 823.0,499.0 826.0,498.0 828.0,498.0 831.0,497.0 833.0,496.0 837.0" style="fill:none;stroke:#ffffff;stroke-width:2"/>
<polyline points="483.0 822.0,485.0 821.0,490.0 820.0,493.0 819.0,497.0 818.0,506.0 815.0,513.0 813.0,515.0 812.0,518.0 811.0,521.0 810.0" style="fill:none;stroke:#ffffff;stroke-width:2"/>
<polyline points="514.0 827.0,515.0 830.0,517.0 829.0,519.0 827.0,522.0 826.0,522.0 830.0" style="fill:none;stroke:#ffffff;stroke-width:2"/>
<polyline points="527.0 823.0,527.0 827.0,526.0 829.0,526.0 831.0" style="fill:none;stroke:#ffffff;stroke-width:2"/>
<polyline points="528.0 811.0,531.0 809.0,536.0 807.0,539.0 806.0,542.0 808.0,540.0 810.0,534.0 815.0,532.0 817.0,531.0 819.0,532.0 821.0,533.0 825.0,533.0 829.0,534.0 833.0,535.0 840.0,535.0 844.0,535.0 855.0" style="fill:none;stroke:#ffffff;stroke-width:2"/>
<polyline points="544.0 822.0,545.0 825.0,545.0 829.0,544.0 830.0" style="fill:none;stroke:#ffffff;stroke-width:2"/>
<polyline points="545.0 827.0,548.0 828.0,549.0 831.0,547.0 834.0,545.0 835.0,543.0 835.0" style="fill:none;stroke:#ffffff;stroke-width:2"/>
<polyline points="552.0 830.0,553.0 834.0,556.0 833.0,558.0 830.0" style="fill:none;stroke:#ffffff;stroke-width:2"/>
<polyline points="564.0 805.0,564.0 808.0,563.0 811.0,563.0 816.0,562.0 818.0,562.0 821.0,561.0 827.0,561.0 832.0,562.0 834.0,564.0 836.0,566.0 835.0,571.0 832.0,572.0 830.0,573.0 827.0,571.0 829.0,573.0 831.0,576.0 830.0,580.0 828.0,581.0 826.0,584.0 824.0,585.0 827.0,586.0 829.0,588.0 831.0" style="fill:none;stroke:#ffffff;stroke-width:2"/>
<polyline points="599.0 804.0,599.0 808.0,597.0 817.0,596.0 822.0,596.0 825.0,595.0 827.0,594.0 831.0,594.0 834.0,593.0 839.0,593.0 841.0" style="fill:none;stroke:#ffffff;stroke-width:2"/>
<polyline points="585.0 813.0,588.0 812.0,593.0 812.0,596.0 811.0,600.0 811.0,608.0 810.0,611.0 810.0,613.0 809.0" style="fill:none;stroke:#ffffff;stroke-width:2"/>
<polyline points="635.0 681.0,634.0 684.0,631.0 695.0,630.0 700.0,630.0 703.0,631.0 708.0,634.0 708.0,641.0 707.0" style="fill:none;stroke:#ffffff;stroke-width:2"/>
<polyline points="646.0 705.0,647.0 703.0,648.0 699.0,650.0 695.0,652.0 693.0,653.0 697.0,654.0 700.0" style="fill:none;stroke:#ffffff;stroke-width:2"/>
<polyline points="664.0 695.0,664.0 699.0,665.0 697.0,669.0 694.0,670.0 696.0,673.0 697.0,674.0 695.0,676.0 694.0,677.0 692.0,678.0 695.0,679.0 697.0,679.0 699.0" style="fill:none;stroke:#ffffff;stroke-width:2"/>
<polyline points="640.0 698.0,643.0 697.0,647.0 697.0,655.0 696.0,657.0 696.0" style="fill:none;stroke:#ffffff;stroke-width:2"/>
<polyline points="686.0 688.0,685.0 691.0,685.0 695.0,685.0 699.0" style="fill:none;stroke:#ffffff;stroke-width:2"/>
<polyline points="692.0 694.0,693.0 697.0,692.0 700.0,693.0 696.0,694.0 693.0,696.0 690.0,699.0 692.0,701.0 695.0,703.0 697.0,704.0 694.0,706.0 690.0,707.0 687.0,708.0 686.0" style="fill:none;stroke:#ffffff;stroke-width:2"/>
<polyline points="712.0 698.0,714.0 696.0,715.0 694.0,719.0 691.0,719.0 693.0" style="fill:none;stroke:#ffffff;stroke-width:2"/>
<polyline points="715.0 695.0,718.0 693.0,720.0 693.0" style="fill:none;stroke:#ffffff;stroke-width:2"/>
<polyline points="729.0 685.0,729.0 689.0,728.0 691.0,728.0 695.0,728.0 697.0" style="fill:none;stroke:#ffffff;stroke-width:2"/>
<polyline points="724.0 671.0,726.0 670.0,728.0 668.0,732.0 667.0,737.0 668.0,740.0 669.0,743.0 673.0,742.0 676.0,741.0 678.0,739.0 679.0,737.0 681.0,732.0 685.0,729.0 687.0,727.0 689.0,729.0 691.0,731.0 694.0,733.0 698.0,735.0 700.0,737.0 705.0,738.0 707.0,740.0 710.0,741.0 712.0,743.0 715.0,747.0 720.0,749.0 722.0,754.0 726.0,756.0 728.0,760.0 731.0,763.0 734.0,766.0 736.0,769.0 737.0" style="fill:none;stroke:#ffffff;stroke-width:2"/>
<polyline points="581.0 911.0,584.0 913.0,587.0 916.0,588.0 918.0,590.0 920.0,594.0 925.0,595.0 928.0,596.0 930.0,598.0 932.0,601.0 928.0,602.0 926.0,603.0 922.0,604.0 917.0,605.0 915.0,608.0 909.0" style="fill:none;stroke:#ffffff;stroke-width:2"/>
<polyline points="576.0 898.0,575.0 900.0,568.0 912.0,567.0 914.0,565.0 916.0,564.0 919.0,561.0 922.0,557.0 927.0,561.0 928.0,563.0 929.0,565.0 932.0,567.0 933.0,570.0 936.0,584.0 949.0,587.0 951.0,589.0 953.0" style="fill:none;stroke:#ffffff;stroke-width:2"/>
<polyline points="623.0 901.0,625.0 903.0,627.0 906.0,629.0 908.0,638.0 916.0,640.0 919.0,642.0 921.0,649.0 930.0,647.0 934.0,645.0 937.0,644.0 940.0,643.0 942.0,636.0 958.0" style="fill:none;stroke:#ffffff;stroke-width:2"/>
<polyline points="220.0 836.0,224.0 835.0,229.0 834.0,233.0 834.0,237.0 833.0,240.0 832.0" style="fill:none;stroke:#ffffff;stroke-width:2"/>
<polyline points="168.0 839.0,165.0 840.0,163.0 842.0,162.0 845.0,161.0 850.0,163.0 852.0,167.0 852.0,169.0 850.0,172.0 845.0,171.0 842.0,169.0 837.0,167.0 834.0,166.0 830.0,165.0 828.0,162.0 823.0,161.0 819.0,160.0 816.0,161.0 813.0,164.0 811.0,170.0 809.0,176.0 809.0,179.0 810.0,181.0 812.0,182.0 813.0" style="fill:none;stroke:#ffffff;stroke-width:2"/>
<polyline points="179.0 854.0,182.0 852.0,183.0 850.0,184.0 847.0,184.0 844.0,185.0 839.0,184.0 837.0,181.0 839.0,180.0 842.0,180.0 846.0,181.0 854.0,182.0 856.0,184.0 857.0,187.0 858.0,189.0 856.0" style="fill:none;stroke:#ffffff;stroke-width:2"/>
<polyline points="195.0 845.0,194.0 848.0,196.0 851.0,195.0 855.0,193.0 856.0,192.0 857.0" style="fill:none;stroke:#ffffff;stroke-width:2"/>
<polyline points="694.0 716.0,692.0 717.0,690.0 719.0,686.0 725.0,684.0 729.0,682.0 738.0,681.0 743.0,681.0 748.0,682.0 759.0,682.0 763.0,683.0 766.0,684.0 772.0,685.0 774.0,686.0 780.0" style="fill:none;stroke:#ffffff;stroke-width:2"/>
<polyline points="704.0 747.0,704.0 751.0,703.0 765.0,702.0 766.0" style="fill:none;stroke:#ffffff;stroke-width:2"/>
<polyline points="705.0 742.0,709.0 742.0,708.0 746.0,707.0 749.0,705.0 751.0,703.0 754.0,704.0 757.0,707.0 759.0,710.0 763.0,708.0 765.0,705.0 767.0" style="fill:none;stroke:#ffffff;stroke-width:2"/>
<polyline points="718.0 747.0,718.0 750.0,717.0 753.0,717.0 756.0,718.0 765.0,720.0 764.0,722.0 764.0" style="fill:none;stroke:#ffffff;stroke-width:2"/>
<polyline points="728.0 765.0,730.0 762.0,731.0 759.0,732.0 755.0,732.0 750.0,733.0 746.0,735.0 744.0,736.0 747.0,737.0 749.0,738.0 753.0,739.0 755.0,740.0 760.0,740.0 764.0,739.0 765.0" style="fill:none;stroke:#ffffff;stroke-width:2"/>
<polyline points="732.0 758.0,735.0 756.0,739.0 755.0" style="fill:none;stroke:#ffffff;stroke-width:2"/>
<polyline points="748.0 750.0,745.0 751.0,746.0 754.0,748.0 756.0,750.0 759.0,749.0 762.0,748.0 763.0" style="fill:none;stroke:#ffffff;stroke-width:2"/>
<polyline points="756.0 753.0,756.0 758.0,758.0 760.0,762.0 762.0,762.0 760.0" style="fill:none;stroke:#ffffff;stroke-width:2"/>
<polyline points="765.0 753.0,765.0 757.0,766.0 760.0,769.0 763.0,776.0 755.0,777.0 752.0,777.0 748.0,778.0 751.0,780.0 755.0,782.0 757.0,783.0 759.0,781.0 763.0" style="fill:none;stroke:#ffffff;stroke-width:2"/>
<polyline points="727.0 792.0,726.0 795.0,726.0 802.0,725.0 809.0,725.0 818.0,724.0 823.0,724.0 826.0,723.0 831.0" style="fill:none;stroke:#ffffff;stroke-width:2"/>
<polyline points="702.0 787.0,704.0 785.0,709.0 784.0,717.0 783.0,720.0 783.0,729.0 785.0,732.0 788.0,733.0 791.0,729.0 795.0,727.0 796.0,725.0 798.0,722.0 800.0,720.0 801.0" style="fill:none;stroke:#ffffff;stroke-width:2"/>
<polyline points="739.0 808.0,740.0 811.0,740.0 816.0,740.0 818.0" style="fill:none;stroke:#ffffff;stroke-width:2"/>
<polyline points="742.0 798.0,744.0 799.0,744.0 802.0,742.0 805.0,740.0 807.0,738.0 808.0,737.0 811.0,738.0 814.0,739.0 816.0,742.0 819.0,745.0 820.0,747.0 820.0" style="fill:none;stroke:#ffffff;stroke-width:2"/>
<polyline points="753.0 808.0,752.0 811.0,751.0 813.0,753.0 817.0,756.0 818.0,758.0 817.0,759.0 813.0,758.0 812.0" style="fill:none;stroke:#ffffff;stroke-width:2"/>
<polyline points="787.0 782.0,786.0 780.0,784.0 777.0,782.0 775.0,778.0 773.0,775.0 775.0,773.0 778.0,769.0 783.0,768.0 785.0,767.0 788.0,765.0 790.0,763.0 795.0,762.0 798.0,760.0 807.0,760.0 811.0,761.0 819.0,761.0 826.0,762.0 829.0,764.0 839.0,765.0 842.0,765.0 845.0,767.0 851.0,767.0 856.0,766.0 863.0,764.0 867.0,761.0 870.0" style="fill:none;stroke:#ffffff;stroke-width:2"/>
<polyline points="747.0 812.0,750.0 812.0,769.0 811.0,771.0 809.0,775.0 808.0,776.0 812.0,776.0 818.0,777.0 821.0,777.0 823.0" style="fill:none;stroke:#ffffff;stroke-width:2"/>
<polyline points="785.0 806.0,785.0 812.0,786.0 818.0,787.0 821.0,789.0 823.0,792.0 821.0,794.0 821.0" style="fill:none;stroke:#ffffff;stroke-width:2"/>
<polyline points="799.0 814.0,798.0 816.0,798.0 820.0,799.0 823.0,803.0 823.0,804.0 822.0" style="fill:none;stroke:#ffffff;stroke-width:2"/>
<polyline points="793.0 807.0,797.0 805.0,801.0 804.0,804.0 804.0,806.0 803.0,808.0 803.0" style="fill:none;stroke:#ffffff;stroke-width:2"/>
<polyline points="798.0 814.0,801.0 813.0,805.0 813.0,810.0 812.0" style="fill:none;stroke:#ffffff;stroke-width:2"/>
<polyline points="814.0 773.0,818.0 774.0,821.0 775.0,824.0 777.0,826.0 778.0,831.0 782.0,833.0 785.0,835.0 796.0,835.0 802.0,833.0 808.0,827.0 823.0,825.0 827.0,823.0 829.0,819.0 834.0,817.0 835.0" style="fill:none;stroke:#ffffff;stroke-width:2"/>
</svg>